[gd_scene load_steps=7 format=2]

[ext_resource path="res://ressources/images/scientific.png" type="Texture" id=1]
[ext_resource path="res://Object/Scientifique.gd" type="Script" id=2]
[ext_resource path="res://ressources/Materials/transformationParticule.tres" type="Material" id=3]

[sub_resource type="RectangleShape2D" id=1]
extents = Vector2( 13.8699, 18.4728 )

[sub_resource type="Animation" id=2]
resource_name = "move"
loop = true
tracks/0/type = "value"
tracks/0/path = NodePath("Sprite:frame")
tracks/0/interp = 1
tracks/0/loop_wrap = true
tracks/0/imported = false
tracks/0/enabled = true
tracks/0/keys = {
"times": PoolRealArray( 0, 0.25, 0.5, 0.75 ),
"transitions": PoolRealArray( 1, 1, 1, 1 ),
"update": 1,
"values": [ 0, 1, 0, 2 ]
}

[sub_resource type="Animation" id=3]
resource_name = "move_infected"
loop = true
tracks/0/type = "value"
tracks/0/path = NodePath("Sprite:frame")
tracks/0/interp = 1
tracks/0/loop_wrap = true
tracks/0/imported = false
tracks/0/enabled = true
tracks/0/keys = {
"times": PoolRealArray( 0, 0.25, 0.5, 0.75 ),
"transitions": PoolRealArray( 1, 1, 1, 1 ),
"update": 1,
"values": [ 3, 4, 3, 5 ]
}

[node name="Scientifique" type="KinematicBody2D"]
scale = Vector2( 2, 2 )
script = ExtResource( 2 )

[node name="CollisionShape2D" type="CollisionShape2D" parent="."]
position = Vector2( -1.26223, 3.62892 )
scale = Vector2( 1, 0.92 )
shape = SubResource( 3 )

[node name="Particles2D" type="Particles2D" parent="."]
scale = Vector2( 0.243642, 0.200001 )
emitting = false
amount = 250
lifetime = 1.5
one_shot = true
explosiveness = 0.49
local_coords = false
process_material = ExtResource( 3 )

[node name="Sprite" type="Sprite" parent="."]
scale = Vector2( 2.56569, 2.56569 )
texture = ExtResource( 1 )
vframes = 6
frame = 1

[node name="AnimationPlayer" type="AnimationPlayer" parent="."]
anims/move = SubResource( 2 )
anims/move_infected = SubResource( 3 )
